[
    {
      "id": "id1",
      "title": "First note",
      "description": "first description",
      "categoryId": "1"
    },
    {
      "id": "id2",
      "title": "Second note",
      "description": "second description",
      "categoryId": "2"
    },
    {
      "id": "id3",
      "title": "Third note",
      "description": "dummy text",
      "categoryId": "2"
    },
    {
      "id": "id4",
      "title": "Fourth note",
      "description": "lorem ipsum",
      "categoryId": "3"
    },
    {
      "id": "id5",
      "title": "Fifth note",
      "description": "passage2",
      "categoryId": "3"
    },
    {
      "id": "id6",
      "title": "Sixth note",
      "description": "classical literature",
      "categoryId": "3"
    },
    {
      "id": "id7",
      "title": "Seventh note",
      "description": "generated words",
      "categoryId": "1"
    },
    {
      "id": "id8",
      "title": "Eighth note",
      "description": "happiness",
      "categoryId": "2"
    },
    {
      "id": "id9",
      "title": "Ninth note",
      "description": "passage9",
      "categoryId": "1"
    },
    {
      "id": "id10",
      "title": "Tenth note",
      "description": "truth",
      "categoryId": "3"
    },
    {
      "id": "id11",
      "title": "Eleventh note",
      "description": "lorem ipsum2",
      "categoryId": "1"
    },
    {
      "id": "id12",
      "title": "Twelfth note",
      "description": "This is the description for the twelfth note",
      "categoryId": "2"
    }
  ]
   
  
  